EESchema Schematic File Version 4
EELAYER 30 0
EELAYER END
$Descr A4 11693 8268
encoding utf-8
Sheet 1 1
Title ""
Date ""
Rev ""
Comp ""
Comment1 ""
Comment2 ""
Comment3 ""
Comment4 ""
$EndDescr
$Comp
L Connector:AVR-PDI-6 J2
U 1 1 5E6DF7CF
P 1300 1200
F 0 "J2" H 971 1246 50  0000 R CNN
F 1 "AVR-PDI-6" H 971 1155 50  0000 R CNN
F 2 "Connector_PinHeader_2.54mm:PinHeader_2x03_P2.54mm_Vertical" V 1050 1150 50  0001 C CNN
F 3 " ~" H 25  650 50  0001 C CNN
	1    1300 1200
	1    0    0    -1  
$EndComp
$Comp
L power:+3V3 #PWR03
U 1 1 5E6E0036
P 1200 750
F 0 "#PWR03" H 1200 600 50  0001 C CNN
F 1 "+3V3" H 1215 923 50  0000 C CNN
F 2 "" H 1200 750 50  0001 C CNN
F 3 "" H 1200 750 50  0001 C CNN
	1    1200 750 
	1    0    0    -1  
$EndComp
$Comp
L power:GND #PWR04
U 1 1 5E6E10B0
P 1200 1650
F 0 "#PWR04" H 1200 1400 50  0001 C CNN
F 1 "GND" H 1205 1477 50  0000 C CNN
F 2 "" H 1200 1650 50  0001 C CNN
F 3 "" H 1200 1650 50  0001 C CNN
	1    1200 1650
	1    0    0    -1  
$EndComp
$Comp
L power:GND #PWR014
U 1 1 5E6E236B
P 3300 3250
F 0 "#PWR014" H 3300 3000 50  0001 C CNN
F 1 "GND" H 3305 3077 50  0000 C CNN
F 2 "" H 3300 3250 50  0001 C CNN
F 3 "" H 3300 3250 50  0001 C CNN
	1    3300 3250
	1    0    0    -1  
$EndComp
Wire Wire Line
	3300 3250 3300 3200
$Comp
L Device:C C2
U 1 1 5E6E6AF2
P 2100 2650
F 0 "C2" V 1848 2650 50  0000 C CNN
F 1 "100n" V 1939 2650 50  0000 C CNN
F 2 "Capacitor_SMD:C_0603_1608Metric_Pad1.05x0.95mm_HandSolder" H 2138 2500 50  0001 C CNN
F 3 "~" H 2100 2650 50  0001 C CNN
	1    2100 2650
	-1   0    0    1   
$EndComp
$Comp
L power:+3V3 #PWR013
U 1 1 5E6E8010
P 1900 2400
F 0 "#PWR013" H 1900 2250 50  0001 C CNN
F 1 "+3V3" H 1915 2573 50  0000 C CNN
F 2 "" H 1900 2400 50  0001 C CNN
F 3 "" H 1900 2400 50  0001 C CNN
	1    1900 2400
	1    0    0    -1  
$EndComp
Wire Wire Line
	3300 1000 3300 950 
$Comp
L power:GND #PWR09
U 1 1 5E6F05E0
P 1900 2900
F 0 "#PWR09" H 1900 2650 50  0001 C CNN
F 1 "GND" H 1905 2727 50  0000 C CNN
F 2 "" H 1900 2900 50  0001 C CNN
F 3 "" H 1900 2900 50  0001 C CNN
	1    1900 2900
	1    0    0    -1  
$EndComp
Connection ~ 3300 950 
Wire Wire Line
	3400 950  3300 950 
$Comp
L led_heart-rescue:MT3608-Regulator_Switching U2
U 1 1 5E6DE848
P 2600 5050
F 0 "U2" H 2600 5417 50  0000 C CNN
F 1 "MT3608" H 2600 5326 50  0000 C CNN
F 2 "Package_TO_SOT_SMD:SOT-23-6" H 2650 4800 50  0001 L CIN
F 3 "https://www.olimex.com/Products/Breadboarding/BB-PWR-3608/resources/MT3608.pdf" H 2350 5500 50  0001 C CNN
	1    2600 5050
	1    0    0    -1  
$EndComp
$Comp
L Device:C C1
U 1 1 5E6EA5D5
P 1650 5200
F 0 "C1" H 1765 5246 50  0000 L CNN
F 1 "22u" H 1765 5155 50  0000 L CNN
F 2 "Capacitor_SMD:C_1206_3216Metric_Pad1.42x1.75mm_HandSolder" H 1688 5050 50  0001 C CNN
F 3 "~" H 1650 5200 50  0001 C CNN
	1    1650 5200
	1    0    0    -1  
$EndComp
Wire Wire Line
	1650 5350 1650 5400
Wire Wire Line
	2600 5350 2600 5550
$Comp
L power:+BATT #PWR015
U 1 1 5E6F50CB
P 3200 6550
F 0 "#PWR015" H 3200 6400 50  0001 C CNN
F 1 "+BATT" H 3215 6723 50  0000 C CNN
F 2 "" H 3200 6550 50  0001 C CNN
F 3 "" H 3200 6550 50  0001 C CNN
	1    3200 6550
	1    0    0    -1  
$EndComp
Wire Wire Line
	2300 4950 2250 4950
$Comp
L Device:L L1
U 1 1 5E6FC0CA
P 2600 4600
F 0 "L1" V 2790 4600 50  0000 C CNN
F 1 "22u" V 2699 4600 50  0000 C CNN
F 2 "Inductor_SMD:L_Neosid_SM-NE127_HandSoldering" H 2600 4600 50  0001 C CNN
F 3 "~" H 2600 4600 50  0001 C CNN
	1    2600 4600
	0    -1   -1   0   
$EndComp
Wire Wire Line
	2450 4600 2250 4600
Wire Wire Line
	2250 4600 2250 4950
Connection ~ 2250 4950
Wire Wire Line
	2750 4600 2950 4600
Wire Wire Line
	2950 4600 2950 4950
Wire Wire Line
	2950 4950 2900 4950
Wire Wire Line
	3000 4600 2950 4600
Connection ~ 2950 4600
Wire Wire Line
	3450 5150 3450 5100
Wire Wire Line
	3450 5200 3450 5150
Connection ~ 3450 5150
Wire Wire Line
	3300 4600 3450 4600
Wire Wire Line
	3450 4600 3450 4800
Wire Wire Line
	3450 5500 3450 5550
Connection ~ 3450 4600
Wire Wire Line
	2900 5150 3450 5150
$Comp
L Device:C C3
U 1 1 5E71130D
P 3750 4950
F 0 "C3" H 3865 4996 50  0000 L CNN
F 1 "22u" H 3865 4905 50  0000 L CNN
F 2 "Capacitor_SMD:C_1206_3216Metric_Pad1.42x1.75mm_HandSolder" H 3788 4800 50  0001 C CNN
F 3 "~" H 3750 4950 50  0001 C CNN
	1    3750 4950
	1    0    0    -1  
$EndComp
Wire Wire Line
	3750 5100 3750 5550
Wire Wire Line
	3450 4600 3750 4600
Wire Wire Line
	3750 4600 3750 4800
Connection ~ 3750 4600
$Comp
L Device:D_Zener D2
U 1 1 5E71FD9D
P 4250 5000
F 0 "D2" V 4204 5080 50  0000 L CNN
F 1 "3V6" V 4295 5080 50  0000 L CNN
F 2 "Diode_THT:D_DO-35_SOD27_P7.62mm_Horizontal" H 4250 5000 50  0001 C CNN
F 3 "~" H 4250 5000 50  0001 C CNN
	1    4250 5000
	0    1    1    0   
$EndComp
Wire Wire Line
	4250 4850 4250 4600
Wire Wire Line
	4250 4600 3750 4600
Wire Wire Line
	4250 5150 4250 5550
Wire Wire Line
	1200 750  1200 800 
Wire Wire Line
	1200 1600 1200 1650
Wire Wire Line
	10700 6050 10650 6050
Wire Wire Line
	10700 5700 10650 5700
Wire Wire Line
	10700 5350 10650 5350
Wire Wire Line
	10700 5000 10650 5000
Wire Wire Line
	10700 4300 10650 4300
Wire Wire Line
	10700 3950 10650 3950
Wire Wire Line
	10700 3600 10650 3600
Wire Wire Line
	10700 2850 10650 2850
Wire Wire Line
	10700 2150 10650 2150
Wire Wire Line
	10700 1800 10650 1800
Wire Wire Line
	10700 1450 10650 1450
Wire Wire Line
	10700 1100 10650 1100
Wire Wire Line
	10700 750  10650 750 
Wire Wire Line
	9900 3300 10300 3300
Wire Wire Line
	10300 3300 10300 3200
Wire Wire Line
	10300 3200 10350 3200
Wire Wire Line
	9900 3500 10300 3500
Wire Wire Line
	10300 3500 10300 3600
Wire Wire Line
	10300 3600 10350 3600
Wire Wire Line
	9900 3600 10250 3600
Wire Wire Line
	10250 3600 10250 3950
Wire Wire Line
	10250 3950 10350 3950
Wire Wire Line
	9900 3700 10200 3700
Wire Wire Line
	10200 3700 10200 4300
Wire Wire Line
	10200 4300 10350 4300
Wire Wire Line
	9900 3800 10150 3800
Wire Wire Line
	10150 3800 10150 4650
Wire Wire Line
	10150 4650 10350 4650
Wire Wire Line
	9900 3900 10100 3900
Wire Wire Line
	10100 3900 10100 5000
Wire Wire Line
	10100 5000 10350 5000
Wire Wire Line
	9900 4000 10050 4000
Wire Wire Line
	10050 4000 10050 5350
Wire Wire Line
	10050 5350 10350 5350
Wire Wire Line
	10000 4100 10000 5700
Wire Wire Line
	10000 5700 10350 5700
Wire Wire Line
	9900 4100 10000 4100
Wire Wire Line
	9900 4200 9950 4200
Wire Wire Line
	9950 4200 9950 6050
Wire Wire Line
	9950 6050 10350 6050
Wire Wire Line
	9900 3200 10250 3200
Wire Wire Line
	10250 3200 10250 2850
Wire Wire Line
	10250 2850 10350 2850
Wire Wire Line
	9900 3100 10200 3100
Wire Wire Line
	10200 3100 10200 2500
Wire Wire Line
	10200 2500 10350 2500
Wire Wire Line
	9900 3000 10150 3000
Wire Wire Line
	10150 3000 10150 2150
Wire Wire Line
	10150 2150 10350 2150
Wire Wire Line
	9900 2900 10100 2900
Wire Wire Line
	10100 2900 10100 1800
Wire Wire Line
	9900 2800 10050 2800
Wire Wire Line
	10050 2800 10050 1450
Wire Wire Line
	10050 1450 10350 1450
Wire Wire Line
	9900 2700 10000 2700
Wire Wire Line
	10000 2700 10000 1100
Wire Wire Line
	10000 1100 10350 1100
Wire Wire Line
	9900 2600 9950 2600
Wire Wire Line
	9950 2600 9950 750 
Wire Wire Line
	9950 750  10350 750 
Wire Wire Line
	11050 750  11000 750 
Wire Wire Line
	11050 750  11050 1100
Wire Wire Line
	11050 6050 11000 6050
Wire Wire Line
	11000 1100 11050 1100
Connection ~ 11050 1100
Wire Wire Line
	11050 1100 11050 1450
Wire Wire Line
	11000 1450 11050 1450
Connection ~ 11050 1450
Wire Wire Line
	11050 1450 11050 1800
Wire Wire Line
	11000 1800 11050 1800
Connection ~ 11050 1800
Wire Wire Line
	11050 1800 11050 2150
Wire Wire Line
	11000 2150 11050 2150
Connection ~ 11050 2150
Wire Wire Line
	11050 2150 11050 2500
Wire Wire Line
	11000 2500 11050 2500
Connection ~ 11050 2500
Wire Wire Line
	11050 2500 11050 2850
Wire Wire Line
	11000 2850 11050 2850
Connection ~ 11050 2850
Wire Wire Line
	11050 2850 11050 3200
Wire Wire Line
	11000 3200 11050 3200
Connection ~ 11050 3200
Wire Wire Line
	11050 3200 11050 3600
Wire Wire Line
	11000 3600 11050 3600
Connection ~ 11050 3600
Wire Wire Line
	11050 3600 11050 3950
Wire Wire Line
	11000 3950 11050 3950
Connection ~ 11050 3950
Wire Wire Line
	11050 3950 11050 4300
Wire Wire Line
	11000 4300 11050 4300
Connection ~ 11050 4300
Wire Wire Line
	11050 4300 11050 4650
Wire Wire Line
	11000 4650 11050 4650
Connection ~ 11050 4650
Wire Wire Line
	11050 4650 11050 5000
Wire Wire Line
	11000 5000 11050 5000
Connection ~ 11050 5000
Wire Wire Line
	11050 5000 11050 5350
Wire Wire Line
	11000 5350 11050 5350
Connection ~ 11050 5350
Wire Wire Line
	11050 5350 11050 5700
Wire Wire Line
	11000 5700 11050 5700
Connection ~ 11050 5700
Wire Wire Line
	11050 5700 11050 6050
$Comp
L power:+3V3 #PWR040
U 1 1 5E8AED47
P 9200 1900
F 0 "#PWR040" H 9200 1750 50  0001 C CNN
F 1 "+3V3" H 9215 2073 50  0000 C CNN
F 2 "" H 9200 1900 50  0001 C CNN
F 3 "" H 9200 1900 50  0001 C CNN
	1    9200 1900
	1    0    0    -1  
$EndComp
$Comp
L Device:C C9
U 1 1 5E8B20DC
P 9000 1950
F 0 "C9" V 8748 1950 50  0000 C CNN
F 1 "100n" V 8839 1950 50  0000 C CNN
F 2 "Capacitor_SMD:C_0603_1608Metric_Pad1.05x0.95mm_HandSolder" H 9038 1800 50  0001 C CNN
F 3 "~" H 9000 1950 50  0001 C CNN
	1    9000 1950
	0    1    1    0   
$EndComp
Wire Wire Line
	9200 1900 9200 1950
Wire Wire Line
	9150 1950 9200 1950
Connection ~ 9200 1950
Wire Wire Line
	9200 1950 9200 2300
$Comp
L power:GND #PWR041
U 1 1 5E8BFC35
P 9200 4550
F 0 "#PWR041" H 9200 4300 50  0001 C CNN
F 1 "GND" H 9205 4377 50  0000 C CNN
F 2 "" H 9200 4550 50  0001 C CNN
F 3 "" H 9200 4550 50  0001 C CNN
	1    9200 4550
	1    0    0    -1  
$EndComp
Wire Wire Line
	9200 4550 9200 4500
$Comp
L power:GND #PWR039
U 1 1 5E8C73D6
P 8800 2000
F 0 "#PWR039" H 8800 1750 50  0001 C CNN
F 1 "GND" H 8805 1827 50  0000 C CNN
F 2 "" H 8800 2000 50  0001 C CNN
F 3 "" H 8800 2000 50  0001 C CNN
	1    8800 2000
	1    0    0    -1  
$EndComp
Wire Wire Line
	8850 1950 8800 1950
Wire Wire Line
	8800 1950 8800 2000
$Comp
L Device:R R13
U 1 1 5E8CF2B9
P 8200 2250
F 0 "R13" V 8100 2250 50  0000 C CNN
F 1 "4k7" V 8300 2250 50  0000 C CNN
F 2 "Resistor_SMD:R_0805_2012Metric_Pad1.15x1.40mm_HandSolder" V 8130 2250 50  0001 C CNN
F 3 "~" H 8200 2250 50  0001 C CNN
	1    8200 2250
	-1   0    0    1   
$EndComp
$Comp
L Device:R R12
U 1 1 5E8D03AE
P 7900 2250
F 0 "R12" V 7800 2250 50  0000 C CNN
F 1 "4k7" V 8000 2250 50  0000 C CNN
F 2 "Resistor_SMD:R_0805_2012Metric_Pad1.15x1.40mm_HandSolder" V 7830 2250 50  0001 C CNN
F 3 "~" H 7900 2250 50  0001 C CNN
	1    7900 2250
	-1   0    0    1   
$EndComp
$Comp
L power:+3V3 #PWR037
U 1 1 5E8D082A
P 8200 2050
F 0 "#PWR037" H 8200 1900 50  0001 C CNN
F 1 "+3V3" H 8215 2223 50  0000 C CNN
F 2 "" H 8200 2050 50  0001 C CNN
F 3 "" H 8200 2050 50  0001 C CNN
	1    8200 2050
	1    0    0    -1  
$EndComp
$Comp
L power:+3V3 #PWR035
U 1 1 5E8D0DB2
P 7900 2050
F 0 "#PWR035" H 7900 1900 50  0001 C CNN
F 1 "+3V3" H 7915 2223 50  0000 C CNN
F 2 "" H 7900 2050 50  0001 C CNN
F 3 "" H 7900 2050 50  0001 C CNN
	1    7900 2050
	1    0    0    -1  
$EndComp
Wire Wire Line
	8500 2600 8200 2600
Wire Wire Line
	8200 2600 8200 2400
Wire Wire Line
	8500 2700 7900 2700
Wire Wire Line
	7900 2700 7900 2400
Wire Wire Line
	8200 2100 8200 2050
Wire Wire Line
	7900 2100 7900 2050
Text Label 8300 2600 0    50   ~ 0
SDA
Text Label 8300 2700 0    50   ~ 0
SCL
Wire Wire Line
	8500 4000 8450 4000
Wire Wire Line
	8450 4000 8450 4100
Wire Wire Line
	8450 4200 8500 4200
Wire Wire Line
	8500 4100 8450 4100
Connection ~ 8450 4100
Wire Wire Line
	8450 4100 8450 4200
$Comp
L power:GND #PWR038
U 1 1 5E8FD0D3
P 8450 4550
F 0 "#PWR038" H 8450 4300 50  0001 C CNN
F 1 "GND" H 8455 4377 50  0000 C CNN
F 2 "" H 8450 4550 50  0001 C CNN
F 3 "" H 8450 4550 50  0001 C CNN
	1    8450 4550
	1    0    0    -1  
$EndComp
Wire Wire Line
	8450 4550 8450 4200
Connection ~ 8450 4200
Wire Wire Line
	8500 3500 8450 3500
NoConn ~ 8500 3200
NoConn ~ 8500 3300
$Comp
L Device:D_Schottky D1
U 1 1 5E6FF45D
P 3150 4600
F 0 "D1" H 3150 4383 50  0000 C CNN
F 1 "SS16" H 3150 4474 50  0000 C CNN
F 2 "Diode_SMD:D_SMA_Handsoldering" H 3150 4600 50  0001 C CNN
F 3 "~" H 3150 4600 50  0001 C CNN
	1    3150 4600
	-1   0    0    1   
$EndComp
Wire Wire Line
	4000 2200 4050 2200
Wire Wire Line
	4000 2300 4050 2300
$Comp
L Switch:SW_Push SW1
U 1 1 5E835D4A
P 5300 1450
F 0 "SW1" V 5254 1598 50  0000 L CNN
F 1 "SW" V 5345 1598 50  0000 L CNN
F 2 "Button_Switch_THT:SW_PUSH_6mm_H5mm" H 5300 1650 50  0001 C CNN
F 3 "~" H 5300 1650 50  0001 C CNN
	1    5300 1450
	0    1    1    0   
$EndComp
$Comp
L Device:R R6
U 1 1 5E836D02
P 5300 1000
F 0 "R6" V 5200 1000 50  0000 C CNN
F 1 "4k7" V 5400 1000 50  0000 C CNN
F 2 "Resistor_SMD:R_0805_2012Metric_Pad1.15x1.40mm_HandSolder" V 5230 1000 50  0001 C CNN
F 3 "~" H 5300 1000 50  0001 C CNN
	1    5300 1000
	-1   0    0    1   
$EndComp
$Comp
L power:+3V3 #PWR021
U 1 1 5E837231
P 5300 800
F 0 "#PWR021" H 5300 650 50  0001 C CNN
F 1 "+3V3" H 5315 973 50  0000 C CNN
F 2 "" H 5300 800 50  0001 C CNN
F 3 "" H 5300 800 50  0001 C CNN
	1    5300 800 
	1    0    0    -1  
$EndComp
Wire Wire Line
	5300 800  5300 850 
$Comp
L power:GND #PWR022
U 1 1 5E856BCA
P 5300 1700
F 0 "#PWR022" H 5300 1450 50  0001 C CNN
F 1 "GND" H 5305 1527 50  0000 C CNN
F 2 "" H 5300 1700 50  0001 C CNN
F 3 "" H 5300 1700 50  0001 C CNN
	1    5300 1700
	1    0    0    -1  
$EndComp
Wire Wire Line
	5300 1650 5300 1700
Wire Wire Line
	5300 1150 5300 1200
Connection ~ 5300 1200
Wire Wire Line
	5300 1200 5300 1250
$Comp
L Switch:SW_SPDT SW5
U 1 1 5F4F171B
P 1650 6000
F 0 "SW5" H 1600 6150 50  0000 C CNN
F 1 "POWER_ON" H 1500 5800 50  0000 C CNN
F 2 "Button_Switch_THT:SW_CuK_OS102011MA1QN1_SPDT_Angled" H 1650 6000 50  0001 C CNN
F 3 "~" H 1650 6000 50  0001 C CNN
	1    1650 6000
	-1   0    0    -1  
$EndComp
Connection ~ 4250 4600
Text Label 3750 4600 0    50   ~ 0
v_reg_out
$Comp
L Device:Battery_Cell BT1
U 1 1 5F50D711
P 3200 6850
F 0 "BT1" H 3050 7000 50  0000 L CNN
F 1 "li-ion-18650" V 3350 6650 50  0000 L CNN
F 2 "Battery:BatteryHolder_Keystone_1042_1x18650" V 3200 6910 50  0001 C CNN
F 3 "~" V 3200 6910 50  0001 C CNN
	1    3200 6850
	1    0    0    -1  
$EndComp
Wire Wire Line
	3200 6950 3200 7000
$Comp
L power:GND1 #PWR08
U 1 1 5F6C33C6
P 1650 5400
F 0 "#PWR08" H 1650 5150 50  0001 C CNN
F 1 "GND1" H 1655 5227 50  0000 C CNN
F 2 "" H 1650 5400 50  0001 C CNN
F 3 "" H 1650 5400 50  0001 C CNN
	1    1650 5400
	1    0    0    -1  
$EndComp
$Comp
L power:GND1 #PWR010
U 1 1 5F6C37B8
P 2600 5550
F 0 "#PWR010" H 2600 5300 50  0001 C CNN
F 1 "GND1" H 2605 5377 50  0000 C CNN
F 2 "" H 2600 5550 50  0001 C CNN
F 3 "" H 2600 5550 50  0001 C CNN
	1    2600 5550
	1    0    0    -1  
$EndComp
$Comp
L power:GND1 #PWR017
U 1 1 5F6C4BD6
P 3450 5550
F 0 "#PWR017" H 3450 5300 50  0001 C CNN
F 1 "GND1" H 3455 5377 50  0000 C CNN
F 2 "" H 3450 5550 50  0001 C CNN
F 3 "" H 3450 5550 50  0001 C CNN
	1    3450 5550
	1    0    0    -1  
$EndComp
$Comp
L power:GND1 #PWR018
U 1 1 5F6C5063
P 3750 5550
F 0 "#PWR018" H 3750 5300 50  0001 C CNN
F 1 "GND1" H 3755 5377 50  0000 C CNN
F 2 "" H 3750 5550 50  0001 C CNN
F 3 "" H 3750 5550 50  0001 C CNN
	1    3750 5550
	1    0    0    -1  
$EndComp
$Comp
L power:GND1 #PWR019
U 1 1 5F6C5384
P 4250 5550
F 0 "#PWR019" H 4250 5300 50  0001 C CNN
F 1 "GND1" H 4255 5377 50  0000 C CNN
F 2 "" H 4250 5550 50  0001 C CNN
F 3 "" H 4250 5550 50  0001 C CNN
	1    4250 5550
	1    0    0    -1  
$EndComp
$Comp
L Mechanical:MountingHole H1
U 1 1 5F8D5ED6
P 7200 5550
F 0 "H1" H 7300 5596 50  0000 L CNN
F 1 "MountingHole" H 7300 5505 50  0000 L CNN
F 2 "MountingHole:MountingHole_2.7mm_M2.5" H 7200 5550 50  0001 C CNN
F 3 "~" H 7200 5550 50  0001 C CNN
	1    7200 5550
	1    0    0    -1  
$EndComp
$Comp
L Mechanical:MountingHole H2
U 1 1 5F8DCB3D
P 7200 5750
F 0 "H2" H 7300 5796 50  0000 L CNN
F 1 "MountingHole" H 7300 5705 50  0000 L CNN
F 2 "MountingHole:MountingHole_2.7mm_M2.5" H 7200 5750 50  0001 C CNN
F 3 "~" H 7200 5750 50  0001 C CNN
	1    7200 5750
	1    0    0    -1  
$EndComp
$Comp
L Mechanical:MountingHole H3
U 1 1 5F8DD33F
P 7200 5950
F 0 "H3" H 7300 5996 50  0000 L CNN
F 1 "MountingHole" H 7300 5905 50  0000 L CNN
F 2 "MountingHole:MountingHole_2.7mm_M2.5" H 7200 5950 50  0001 C CNN
F 3 "~" H 7200 5950 50  0001 C CNN
	1    7200 5950
	1    0    0    -1  
$EndComp
$Comp
L Mechanical:MountingHole H4
U 1 1 5F8DD9A9
P 7200 6150
F 0 "H4" H 7300 6196 50  0000 L CNN
F 1 "MountingHole" H 7300 6105 50  0000 L CNN
F 2 "MountingHole:MountingHole_2.7mm_M2.5" H 7200 6150 50  0001 C CNN
F 3 "~" H 7200 6150 50  0001 C CNN
	1    7200 6150
	1    0    0    -1  
$EndComp
Wire Wire Line
	5950 4900 5950 4950
$Comp
L power:+3V3 #PWR027
U 1 1 5F797750
P 5950 4900
F 0 "#PWR027" H 5950 4750 50  0001 C CNN
F 1 "+3V3" H 5965 5073 50  0000 C CNN
F 2 "" H 5950 4900 50  0001 C CNN
F 3 "" H 5950 4900 50  0001 C CNN
	1    5950 4900
	1    0    0    -1  
$EndComp
Wire Wire Line
	5950 5400 5950 5350
$Comp
L power:GND #PWR028
U 1 1 5F78609A
P 5950 5400
F 0 "#PWR028" H 5950 5150 50  0001 C CNN
F 1 "GND" H 5955 5227 50  0000 C CNN
F 2 "" H 5950 5400 50  0001 C CNN
F 3 "" H 5950 5400 50  0001 C CNN
	1    5950 5400
	1    0    0    -1  
$EndComp
$Comp
L Device:CP C6
U 1 1 5F7855C4
P 5950 5150
F 0 "C6" H 6068 5196 50  0000 L CNN
F 1 "100u" H 6068 5105 50  0000 L CNN
F 2 "Capacitor_THT:CP_Radial_D5.0mm_P2.50mm" H 5988 5000 50  0001 C CNN
F 3 "~" H 5950 5150 50  0001 C CNN
	1    5950 5150
	1    0    0    -1  
$EndComp
$Comp
L Connector_Generic:Conn_01x02 J4
U 1 1 5F59F109
P 4800 4600
F 0 "J4" H 4880 4592 50  0000 L CNN
F 1 "3V3" H 4880 4501 50  0000 L CNN
F 2 "Connector_PinHeader_2.54mm:PinHeader_1x02_P2.54mm_Vertical" H 4800 4600 50  0001 C CNN
F 3 "~" H 4800 4600 50  0001 C CNN
	1    4800 4600
	1    0    0    -1  
$EndComp
$Comp
L Connector_Generic:Conn_01x02 J5
U 1 1 5F5A0A0B
P 5500 5200
F 0 "J5" H 5418 5417 50  0000 C CNN
F 1 "3V3" H 5418 5326 50  0000 C CNN
F 2 "Connector_PinSocket_2.54mm:PinSocket_1x02_P2.54mm_Horizontal" H 5500 5200 50  0001 C CNN
F 3 "~" H 5500 5200 50  0001 C CNN
	1    5500 5200
	-1   0    0    1   
$EndComp
Wire Wire Line
	5700 5100 5750 5100
Wire Wire Line
	5750 5100 5750 4950
Wire Wire Line
	5750 4950 5950 4950
Connection ~ 5950 4950
Wire Wire Line
	5950 4950 5950 5000
Wire Wire Line
	5700 5200 5750 5200
Wire Wire Line
	5750 5200 5750 5350
Wire Wire Line
	5750 5350 5950 5350
Connection ~ 5950 5350
Wire Wire Line
	5950 5350 5950 5300
Wire Wire Line
	3200 6550 3200 6600
$Comp
L power:+5V #PWR07
U 1 1 5F6FA68F
P 1650 4900
F 0 "#PWR07" H 1650 4750 50  0001 C CNN
F 1 "+5V" H 1665 5073 50  0000 C CNN
F 2 "" H 1650 4900 50  0001 C CNN
F 3 "" H 1650 4900 50  0001 C CNN
	1    1650 4900
	1    0    0    -1  
$EndComp
$Comp
L Connector_Generic:Conn_01x02 J1
U 1 1 5F7053AE
P 1100 4900
F 0 "J1" H 1180 4892 50  0000 L CNN
F 1 "5V" H 1180 4801 50  0000 L CNN
F 2 "Connector_PinHeader_2.54mm:PinHeader_1x02_P2.54mm_Vertical" H 1100 4900 50  0001 C CNN
F 3 "~" H 1100 4900 50  0001 C CNN
	1    1100 4900
	1    0    0    -1  
$EndComp
$Comp
L power:GND1 #PWR02
U 1 1 5F7071E1
P 850 5050
F 0 "#PWR02" H 850 4800 50  0001 C CNN
F 1 "GND1" H 855 4877 50  0000 C CNN
F 2 "" H 850 5050 50  0001 C CNN
F 3 "" H 850 5050 50  0001 C CNN
	1    850  5050
	1    0    0    -1  
$EndComp
$Comp
L power:+5V #PWR01
U 1 1 5F707C29
P 850 4850
F 0 "#PWR01" H 850 4700 50  0001 C CNN
F 1 "+5V" H 865 5023 50  0000 C CNN
F 2 "" H 850 4850 50  0001 C CNN
F 3 "" H 850 4850 50  0001 C CNN
	1    850  4850
	1    0    0    -1  
$EndComp
Wire Wire Line
	900  4900 850  4900
Wire Wire Line
	850  4900 850  4850
Wire Wire Line
	900  5000 850  5000
Wire Wire Line
	850  5000 850  5050
$Comp
L ru_modules:TP4056_charger_board U1
U 1 1 5F720642
P 2250 6800
F 0 "U1" H 2250 7175 50  0000 C CNN
F 1 "TP4056_charger_board" H 2250 7084 50  0000 C CNN
F 2 "ru_modules:TP4056_charger_board" H 2250 6800 50  0001 C CNN
F 3 "" H 2250 6800 50  0001 C CNN
	1    2250 6800
	1    0    0    -1  
$EndComp
Wire Wire Line
	2750 6750 2950 6750
Wire Wire Line
	2950 6750 2950 6600
Wire Wire Line
	2950 6600 3200 6600
Connection ~ 3200 6600
Wire Wire Line
	3200 6600 3200 6650
Wire Wire Line
	2750 6850 2950 6850
Wire Wire Line
	2950 6850 2950 7000
Wire Wire Line
	2950 7000 3200 7000
$Comp
L power:GND1 #PWR012
U 1 1 5F772EFC
P 2800 7000
F 0 "#PWR012" H 2800 6750 50  0001 C CNN
F 1 "GND1" H 2805 6827 50  0000 C CNN
F 2 "" H 2800 7000 50  0001 C CNN
F 3 "" H 2800 7000 50  0001 C CNN
	1    2800 7000
	1    0    0    -1  
$EndComp
Wire Wire Line
	2750 6950 2800 6950
Wire Wire Line
	2800 6950 2800 7000
$Comp
L power:+5V #PWR011
U 1 1 5F77EA6B
P 2800 6600
F 0 "#PWR011" H 2800 6450 50  0001 C CNN
F 1 "+5V" H 2815 6773 50  0000 C CNN
F 2 "" H 2800 6600 50  0001 C CNN
F 3 "" H 2800 6600 50  0001 C CNN
	1    2800 6600
	1    0    0    -1  
$EndComp
Wire Wire Line
	2750 6650 2800 6650
Wire Wire Line
	2800 6650 2800 6600
Wire Wire Line
	1750 6650 1700 6650
Wire Wire Line
	1700 6650 1700 6750
Wire Wire Line
	1750 6950 1700 6950
Wire Wire Line
	1700 6950 1700 6850
Wire Wire Line
	1650 5050 1650 4950
$Comp
L power:GND1 #PWR020
U 1 1 5F7436EB
P 4550 5550
F 0 "#PWR020" H 4550 5300 50  0001 C CNN
F 1 "GND1" H 4555 5377 50  0000 C CNN
F 2 "" H 4550 5550 50  0001 C CNN
F 3 "" H 4550 5550 50  0001 C CNN
	1    4550 5550
	1    0    0    -1  
$EndComp
Wire Wire Line
	4250 4600 4600 4600
Wire Wire Line
	4600 4700 4550 4700
Wire Wire Line
	4550 4700 4550 5550
$Comp
L power:-BATT #PWR016
U 1 1 5F874BE1
P 3200 7050
F 0 "#PWR016" H 3200 6900 50  0001 C CNN
F 1 "-BATT" H 3215 7223 50  0000 C CNN
F 2 "" H 3200 7050 50  0001 C CNN
F 3 "" H 3200 7050 50  0001 C CNN
	1    3200 7050
	-1   0    0    1   
$EndComp
Wire Wire Line
	3200 7050 3200 7000
Connection ~ 3200 7000
Wire Wire Line
	1650 4950 1650 4900
Connection ~ 1650 4950
$Comp
L power:GND1 #PWR06
U 1 1 5F8A8C14
P 1350 6200
F 0 "#PWR06" H 1350 5950 50  0001 C CNN
F 1 "GND1" H 1355 6027 50  0000 C CNN
F 2 "" H 1350 6200 50  0001 C CNN
F 3 "" H 1350 6200 50  0001 C CNN
	1    1350 6200
	1    0    0    -1  
$EndComp
$Comp
L power:+5V #PWR05
U 1 1 5F8A9102
P 1350 5850
F 0 "#PWR05" H 1350 5700 50  0001 C CNN
F 1 "+5V" H 1365 6023 50  0000 C CNN
F 2 "" H 1350 5850 50  0001 C CNN
F 3 "" H 1350 5850 50  0001 C CNN
	1    1350 5850
	1    0    0    -1  
$EndComp
Wire Wire Line
	1450 6100 1350 6100
Wire Wire Line
	1350 6100 1350 6200
Wire Wire Line
	1450 5900 1350 5900
Wire Wire Line
	1350 5900 1350 5850
Wire Wire Line
	1650 4950 2250 4950
Wire Wire Line
	2100 5150 2100 5450
Wire Wire Line
	2100 5150 2300 5150
Wire Wire Line
	2100 5750 2100 6000
Wire Wire Line
	2100 6000 1850 6000
$Comp
L Device:R R2
U 1 1 5E700766
P 3450 4950
F 0 "R2" V 3350 4950 50  0000 C CNN
F 1 "22k" V 3550 4950 50  0000 C CNN
F 2 "Resistor_SMD:R_0805_2012Metric_Pad1.15x1.40mm_HandSolder" V 3380 4950 50  0001 C CNN
F 3 "~" H 3450 4950 50  0001 C CNN
	1    3450 4950
	-1   0    0    1   
$EndComp
$Comp
L Device:R R3
U 1 1 5E7031FD
P 3450 5350
F 0 "R3" V 3350 5350 50  0000 C CNN
F 1 "4k7" V 3550 5350 50  0000 C CNN
F 2 "Resistor_SMD:R_0805_2012Metric_Pad1.15x1.40mm_HandSolder" V 3380 5350 50  0001 C CNN
F 3 "~" H 3450 5350 50  0001 C CNN
	1    3450 5350
	-1   0    0    1   
$EndComp
$Comp
L Device:R R1
U 1 1 5E6F9516
P 2100 5600
F 0 "R1" V 2000 5600 50  0000 C CNN
F 1 "10k" V 2200 5600 50  0000 C CNN
F 2 "Resistor_SMD:R_0805_2012Metric_Pad1.15x1.40mm_HandSolder" V 2030 5600 50  0001 C CNN
F 3 "~" H 2100 5600 50  0001 C CNN
	1    2100 5600
	-1   0    0    1   
$EndComp
$Comp
L power:GND #PWR025
U 1 1 5F5CF4E7
P 5800 1700
F 0 "#PWR025" H 5800 1450 50  0001 C CNN
F 1 "GND" H 5805 1527 50  0000 C CNN
F 2 "" H 5800 1700 50  0001 C CNN
F 3 "" H 5800 1700 50  0001 C CNN
	1    5800 1700
	1    0    0    -1  
$EndComp
$Comp
L Interface_Expansion:MCP23017_SS U4
U 1 1 5E7CD6AF
P 9200 3400
F 0 "U4" H 8750 2450 50  0000 C CNN
F 1 "MCP23017_SS" H 8900 4350 50  0000 C CNN
F 2 "Package_SO:SSOP-28_5.3x10.2mm_P0.65mm" H 9400 2400 50  0001 L CNN
F 3 "http://ww1.microchip.com/downloads/en/DeviceDoc/20001952C.pdf" H 9400 2300 50  0001 L CNN
	1    9200 3400
	1    0    0    -1  
$EndComp
Wire Wire Line
	3400 950  3400 1000
Wire Wire Line
	10700 2500 10650 2500
Wire Wire Line
	10700 3200 10650 3200
Wire Wire Line
	10100 1800 10350 1800
Wire Wire Line
	10700 4650 10650 4650
$Comp
L Device:R R4
U 1 1 5F609D57
P 5050 1200
F 0 "R4" V 4950 1200 50  0000 C CNN
F 1 "100" V 5150 1200 50  0000 C CNN
F 2 "Resistor_SMD:R_0805_2012Metric_Pad1.15x1.40mm_HandSolder" V 4980 1200 50  0001 C CNN
F 3 "~" H 5050 1200 50  0001 C CNN
	1    5050 1200
	0    -1   -1   0   
$EndComp
Text HLabel 4050 2200 2    50   Input ~ 0
SDA
Text HLabel 4050 2300 2    50   Input ~ 0
SCL
$Comp
L MCU_Microchip_ATmega:ATxmega32E5-AU U3
U 1 1 5E6DE6D0
P 3300 2100
F 0 "U3" H 2750 1050 50  0000 C CNN
F 1 "ATxmega32E5-AU" H 2850 3150 50  0000 C CNN
F 2 "Package_QFP:TQFP-32_7x7mm_P0.8mm" H 3300 2100 50  0001 C CIN
F 3 "http://ww1.microchip.com/downloads/en/DeviceDoc/Atmel-8153-8-and-16-bit-AVR-Microcontroller-XMEGA-E-ATxmega8E5-ATxmega16E5-ATxmega32E5_Datasheet.pdf" H 3300 2100 50  0001 C CNN
	1    3300 2100
	1    0    0    -1  
$EndComp
Text HLabel 1750 1200 2    50   Input ~ 0
PDI_CLK
Wire Wire Line
	1700 1200 1750 1200
Wire Wire Line
	1750 1100 1700 1100
Wire Wire Line
	5200 1200 5300 1200
Text HLabel 7800 2700 0    50   Input ~ 0
SCL
Wire Wire Line
	7900 2700 7800 2700
Connection ~ 7900 2700
Text HLabel 7800 2600 0    50   Input ~ 0
SDA
Wire Wire Line
	8200 2600 7800 2600
Connection ~ 8200 2600
Text HLabel 4850 1200 0    50   Input ~ 0
SW_1
Wire Wire Line
	4900 1200 4850 1200
Wire Wire Line
	5800 1200 5800 1350
Wire Wire Line
	5800 1650 5800 1700
$Comp
L Device:C C4
U 1 1 5F5C0157
P 5800 1500
F 0 "C4" V 5548 1500 50  0000 C CNN
F 1 "100n" V 5639 1500 50  0000 C CNN
F 2 "Capacitor_SMD:C_0603_1608Metric_Pad1.05x0.95mm_HandSolder" H 5838 1350 50  0001 C CNN
F 3 "~" H 5800 1500 50  0001 C CNN
	1    5800 1500
	-1   0    0    1   
$EndComp
Wire Wire Line
	5300 1200 5800 1200
$Comp
L Switch:SW_Push SW2
U 1 1 5FE932CF
P 5300 2850
F 0 "SW2" V 5254 2998 50  0000 L CNN
F 1 "SW" V 5345 2998 50  0000 L CNN
F 2 "Button_Switch_THT:SW_PUSH_6mm_H5mm" H 5300 3050 50  0001 C CNN
F 3 "~" H 5300 3050 50  0001 C CNN
	1    5300 2850
	0    1    1    0   
$EndComp
$Comp
L Device:R R7
U 1 1 5FE932D5
P 5300 2400
F 0 "R7" V 5200 2400 50  0000 C CNN
F 1 "4k7" V 5400 2400 50  0000 C CNN
F 2 "Resistor_SMD:R_0805_2012Metric_Pad1.15x1.40mm_HandSolder" V 5230 2400 50  0001 C CNN
F 3 "~" H 5300 2400 50  0001 C CNN
	1    5300 2400
	-1   0    0    1   
$EndComp
$Comp
L power:+3V3 #PWR023
U 1 1 5FE932DB
P 5300 2200
F 0 "#PWR023" H 5300 2050 50  0001 C CNN
F 1 "+3V3" H 5315 2373 50  0000 C CNN
F 2 "" H 5300 2200 50  0001 C CNN
F 3 "" H 5300 2200 50  0001 C CNN
	1    5300 2200
	1    0    0    -1  
$EndComp
Wire Wire Line
	5300 2200 5300 2250
$Comp
L power:GND #PWR024
U 1 1 5FE932E2
P 5300 3100
F 0 "#PWR024" H 5300 2850 50  0001 C CNN
F 1 "GND" H 5305 2927 50  0000 C CNN
F 2 "" H 5300 3100 50  0001 C CNN
F 3 "" H 5300 3100 50  0001 C CNN
	1    5300 3100
	1    0    0    -1  
$EndComp
Wire Wire Line
	5300 3050 5300 3100
Wire Wire Line
	5300 2550 5300 2600
Connection ~ 5300 2600
Wire Wire Line
	5300 2600 5300 2650
$Comp
L power:GND #PWR026
U 1 1 5FE932EC
P 5800 3100
F 0 "#PWR026" H 5800 2850 50  0001 C CNN
F 1 "GND" H 5805 2927 50  0000 C CNN
F 2 "" H 5800 3100 50  0001 C CNN
F 3 "" H 5800 3100 50  0001 C CNN
	1    5800 3100
	1    0    0    -1  
$EndComp
$Comp
L Device:R R5
U 1 1 5FE932F2
P 5050 2600
F 0 "R5" V 4950 2600 50  0000 C CNN
F 1 "100" V 5150 2600 50  0000 C CNN
F 2 "Resistor_SMD:R_0805_2012Metric_Pad1.15x1.40mm_HandSolder" V 4980 2600 50  0001 C CNN
F 3 "~" H 5050 2600 50  0001 C CNN
	1    5050 2600
	0    -1   -1   0   
$EndComp
Wire Wire Line
	5200 2600 5300 2600
Text HLabel 4850 2600 0    50   Input ~ 0
SW_2
Wire Wire Line
	4900 2600 4850 2600
Wire Wire Line
	5800 2600 5800 2750
Wire Wire Line
	5800 3050 5800 3100
$Comp
L Device:C C5
U 1 1 5FE932FD
P 5800 2900
F 0 "C5" V 5548 2900 50  0000 C CNN
F 1 "100n" V 5639 2900 50  0000 C CNN
F 2 "Capacitor_SMD:C_0603_1608Metric_Pad1.05x0.95mm_HandSolder" H 5838 2750 50  0001 C CNN
F 3 "~" H 5800 2900 50  0001 C CNN
	1    5800 2900
	-1   0    0    1   
$EndComp
Wire Wire Line
	5300 2600 5800 2600
$Comp
L Switch:SW_Push SW3
U 1 1 5FEA4D90
P 6700 1450
F 0 "SW3" V 6654 1598 50  0000 L CNN
F 1 "SW" V 6745 1598 50  0000 L CNN
F 2 "Button_Switch_THT:SW_PUSH_6mm_H5mm" H 6700 1650 50  0001 C CNN
F 3 "~" H 6700 1650 50  0001 C CNN
	1    6700 1450
	0    1    1    0   
$EndComp
$Comp
L Device:R R10
U 1 1 5FEA4D96
P 6700 1000
F 0 "R10" V 6600 1000 50  0000 C CNN
F 1 "4k7" V 6800 1000 50  0000 C CNN
F 2 "Resistor_SMD:R_0805_2012Metric_Pad1.15x1.40mm_HandSolder" V 6630 1000 50  0001 C CNN
F 3 "~" H 6700 1000 50  0001 C CNN
	1    6700 1000
	-1   0    0    1   
$EndComp
$Comp
L power:+3V3 #PWR029
U 1 1 5FEA4D9C
P 6700 800
F 0 "#PWR029" H 6700 650 50  0001 C CNN
F 1 "+3V3" H 6715 973 50  0000 C CNN
F 2 "" H 6700 800 50  0001 C CNN
F 3 "" H 6700 800 50  0001 C CNN
	1    6700 800 
	1    0    0    -1  
$EndComp
Wire Wire Line
	6700 800  6700 850 
$Comp
L power:GND #PWR030
U 1 1 5FEA4DA3
P 6700 1700
F 0 "#PWR030" H 6700 1450 50  0001 C CNN
F 1 "GND" H 6705 1527 50  0000 C CNN
F 2 "" H 6700 1700 50  0001 C CNN
F 3 "" H 6700 1700 50  0001 C CNN
	1    6700 1700
	1    0    0    -1  
$EndComp
Wire Wire Line
	6700 1650 6700 1700
Wire Wire Line
	6700 1150 6700 1200
Connection ~ 6700 1200
Wire Wire Line
	6700 1200 6700 1250
$Comp
L power:GND #PWR033
U 1 1 5FEA4DAD
P 7200 1700
F 0 "#PWR033" H 7200 1450 50  0001 C CNN
F 1 "GND" H 7205 1527 50  0000 C CNN
F 2 "" H 7200 1700 50  0001 C CNN
F 3 "" H 7200 1700 50  0001 C CNN
	1    7200 1700
	1    0    0    -1  
$EndComp
$Comp
L Device:R R8
U 1 1 5FEA4DB3
P 6450 1200
F 0 "R8" V 6350 1200 50  0000 C CNN
F 1 "100" V 6550 1200 50  0000 C CNN
F 2 "Resistor_SMD:R_0805_2012Metric_Pad1.15x1.40mm_HandSolder" V 6380 1200 50  0001 C CNN
F 3 "~" H 6450 1200 50  0001 C CNN
	1    6450 1200
	0    -1   -1   0   
$EndComp
Wire Wire Line
	6600 1200 6700 1200
Text HLabel 6250 1200 0    50   Input ~ 0
SW_3
Wire Wire Line
	6300 1200 6250 1200
Wire Wire Line
	7200 1200 7200 1350
Wire Wire Line
	7200 1650 7200 1700
$Comp
L Device:C C7
U 1 1 5FEA4DBE
P 7200 1500
F 0 "C7" V 6948 1500 50  0000 C CNN
F 1 "100n" V 7039 1500 50  0000 C CNN
F 2 "Capacitor_SMD:C_0603_1608Metric_Pad1.05x0.95mm_HandSolder" H 7238 1350 50  0001 C CNN
F 3 "~" H 7200 1500 50  0001 C CNN
	1    7200 1500
	-1   0    0    1   
$EndComp
Wire Wire Line
	6700 1200 7200 1200
$Comp
L Switch:SW_Push SW4
U 1 1 5FEB8C59
P 6700 2850
F 0 "SW4" V 6654 2998 50  0000 L CNN
F 1 "SW" V 6745 2998 50  0000 L CNN
F 2 "Button_Switch_THT:SW_PUSH_6mm_H5mm" H 6700 3050 50  0001 C CNN
F 3 "~" H 6700 3050 50  0001 C CNN
	1    6700 2850
	0    1    1    0   
$EndComp
$Comp
L Device:R R11
U 1 1 5FEB8C5F
P 6700 2400
F 0 "R11" V 6600 2400 50  0000 C CNN
F 1 "4k7" V 6800 2400 50  0000 C CNN
F 2 "Resistor_SMD:R_0805_2012Metric_Pad1.15x1.40mm_HandSolder" V 6630 2400 50  0001 C CNN
F 3 "~" H 6700 2400 50  0001 C CNN
	1    6700 2400
	-1   0    0    1   
$EndComp
$Comp
L power:+3V3 #PWR031
U 1 1 5FEB8C65
P 6700 2200
F 0 "#PWR031" H 6700 2050 50  0001 C CNN
F 1 "+3V3" H 6715 2373 50  0000 C CNN
F 2 "" H 6700 2200 50  0001 C CNN
F 3 "" H 6700 2200 50  0001 C CNN
	1    6700 2200
	1    0    0    -1  
$EndComp
Wire Wire Line
	6700 2200 6700 2250
$Comp
L power:GND #PWR032
U 1 1 5FEB8C6C
P 6700 3100
F 0 "#PWR032" H 6700 2850 50  0001 C CNN
F 1 "GND" H 6705 2927 50  0000 C CNN
F 2 "" H 6700 3100 50  0001 C CNN
F 3 "" H 6700 3100 50  0001 C CNN
	1    6700 3100
	1    0    0    -1  
$EndComp
Wire Wire Line
	6700 3050 6700 3100
Wire Wire Line
	6700 2550 6700 2600
Connection ~ 6700 2600
Wire Wire Line
	6700 2600 6700 2650
$Comp
L power:GND #PWR034
U 1 1 5FEB8C76
P 7200 3100
F 0 "#PWR034" H 7200 2850 50  0001 C CNN
F 1 "GND" H 7205 2927 50  0000 C CNN
F 2 "" H 7200 3100 50  0001 C CNN
F 3 "" H 7200 3100 50  0001 C CNN
	1    7200 3100
	1    0    0    -1  
$EndComp
$Comp
L Device:R R9
U 1 1 5FEB8C7C
P 6450 2600
F 0 "R9" V 6350 2600 50  0000 C CNN
F 1 "100" V 6550 2600 50  0000 C CNN
F 2 "Resistor_SMD:R_0805_2012Metric_Pad1.15x1.40mm_HandSolder" V 6380 2600 50  0001 C CNN
F 3 "~" H 6450 2600 50  0001 C CNN
	1    6450 2600
	0    -1   -1   0   
$EndComp
Wire Wire Line
	6600 2600 6700 2600
Text HLabel 6250 2600 0    50   Input ~ 0
SW_4
Wire Wire Line
	6300 2600 6250 2600
Wire Wire Line
	7200 2600 7200 2750
Wire Wire Line
	7200 3050 7200 3100
$Comp
L Device:C C8
U 1 1 5FEB8C87
P 7200 2900
F 0 "C8" V 6948 2900 50  0000 C CNN
F 1 "100n" V 7039 2900 50  0000 C CNN
F 2 "Capacitor_SMD:C_0603_1608Metric_Pad1.05x0.95mm_HandSolder" H 7238 2750 50  0001 C CNN
F 3 "~" H 7200 2900 50  0001 C CNN
	1    7200 2900
	-1   0    0    1   
$EndComp
Wire Wire Line
	6700 2600 7200 2600
$Comp
L power:GND #PWR0101
U 1 1 5FFABFFD
P 11050 6100
F 0 "#PWR0101" H 11050 5850 50  0001 C CNN
F 1 "GND" H 11055 5927 50  0000 C CNN
F 2 "" H 11050 6100 50  0001 C CNN
F 3 "" H 11050 6100 50  0001 C CNN
	1    11050 6100
	1    0    0    -1  
$EndComp
Wire Wire Line
	11050 6050 11050 6100
Connection ~ 11050 6050
$Comp
L Device:C C10
U 1 1 5FFEB1B1
P 1700 2650
F 0 "C10" V 1448 2650 50  0000 C CNN
F 1 "100n" V 1539 2650 50  0000 C CNN
F 2 "Capacitor_SMD:C_0603_1608Metric_Pad1.05x0.95mm_HandSolder" H 1738 2500 50  0001 C CNN
F 3 "~" H 1700 2650 50  0001 C CNN
	1    1700 2650
	-1   0    0    1   
$EndComp
Wire Wire Line
	1700 2850 1700 2800
Wire Wire Line
	2100 2800 2100 2850
Wire Wire Line
	1700 2850 1900 2850
Wire Wire Line
	1900 2900 1900 2850
Connection ~ 1900 2850
Wire Wire Line
	1900 2850 2100 2850
Wire Wire Line
	1700 2450 1900 2450
Wire Wire Line
	2100 2450 2100 2500
Wire Wire Line
	1900 2400 1900 2450
Connection ~ 1900 2450
Wire Wire Line
	1900 2450 2100 2450
Wire Wire Line
	1700 2450 1700 2500
$Comp
L power:+3V3 #PWR0102
U 1 1 60085034
P 3300 900
F 0 "#PWR0102" H 3300 750 50  0001 C CNN
F 1 "+3V3" H 3315 1073 50  0000 C CNN
F 2 "" H 3300 900 50  0001 C CNN
F 3 "" H 3300 900 50  0001 C CNN
	1    3300 900 
	1    0    0    -1  
$EndComp
Wire Wire Line
	3300 900  3300 950 
Text HLabel 1750 1100 2    50   Input ~ 0
PDI_DATA
Text HLabel 2550 1400 0    50   Input ~ 0
PDI_DATA
Text HLabel 2550 1300 0    50   Input ~ 0
PDI_CLK
Wire Wire Line
	2600 1300 2550 1300
Wire Wire Line
	2600 1400 2550 1400
Text HLabel 8450 3500 0    50   Input ~ 0
MCP_RST
$Comp
L Device:R R30
U 1 1 5FF8A829
P 10500 3200
F 0 "R30" V 10400 3200 50  0000 C CNN
F 1 "220" V 10600 3200 50  0000 C CNN
F 2 "Resistor_SMD:R_0805_2012Metric_Pad1.15x1.40mm_HandSolder" V 10430 3200 50  0001 C CNN
F 3 "~" H 10500 3200 50  0001 C CNN
	1    10500 3200
	0    -1   -1   0   
$EndComp
$Comp
L Device:R R29
U 1 1 5FF8A823
P 10500 2850
F 0 "R29" V 10400 2850 50  0000 C CNN
F 1 "220" V 10600 2850 50  0000 C CNN
F 2 "Resistor_SMD:R_0805_2012Metric_Pad1.15x1.40mm_HandSolder" V 10430 2850 50  0001 C CNN
F 3 "~" H 10500 2850 50  0001 C CNN
	1    10500 2850
	0    -1   -1   0   
$EndComp
$Comp
L Device:R R28
U 1 1 5FF8A81D
P 10500 2500
F 0 "R28" V 10400 2500 50  0000 C CNN
F 1 "220" V 10600 2500 50  0000 C CNN
F 2 "Resistor_SMD:R_0805_2012Metric_Pad1.15x1.40mm_HandSolder" V 10430 2500 50  0001 C CNN
F 3 "~" H 10500 2500 50  0001 C CNN
	1    10500 2500
	0    -1   -1   0   
$EndComp
$Comp
L Device:R R27
U 1 1 5FF8A817
P 10500 2150
F 0 "R27" V 10400 2150 50  0000 C CNN
F 1 "220" V 10600 2150 50  0000 C CNN
F 2 "Resistor_SMD:R_0805_2012Metric_Pad1.15x1.40mm_HandSolder" V 10430 2150 50  0001 C CNN
F 3 "~" H 10500 2150 50  0001 C CNN
	1    10500 2150
	0    -1   -1   0   
$EndComp
$Comp
L Device:R R26
U 1 1 5FF77576
P 10500 1800
F 0 "R26" V 10400 1800 50  0000 C CNN
F 1 "220" V 10600 1800 50  0000 C CNN
F 2 "Resistor_SMD:R_0805_2012Metric_Pad1.15x1.40mm_HandSolder" V 10430 1800 50  0001 C CNN
F 3 "~" H 10500 1800 50  0001 C CNN
	1    10500 1800
	0    -1   -1   0   
$EndComp
$Comp
L Device:R R25
U 1 1 5FF77570
P 10500 1450
F 0 "R25" V 10400 1450 50  0000 C CNN
F 1 "220" V 10600 1450 50  0000 C CNN
F 2 "Resistor_SMD:R_0805_2012Metric_Pad1.15x1.40mm_HandSolder" V 10430 1450 50  0001 C CNN
F 3 "~" H 10500 1450 50  0001 C CNN
	1    10500 1450
	0    -1   -1   0   
$EndComp
$Comp
L Device:R R24
U 1 1 5FF7756A
P 10500 1100
F 0 "R24" V 10400 1100 50  0000 C CNN
F 1 "220" V 10600 1100 50  0000 C CNN
F 2 "Resistor_SMD:R_0805_2012Metric_Pad1.15x1.40mm_HandSolder" V 10430 1100 50  0001 C CNN
F 3 "~" H 10500 1100 50  0001 C CNN
	1    10500 1100
	0    -1   -1   0   
$EndComp
$Comp
L Device:R R23
U 1 1 5FF77564
P 10500 750
F 0 "R23" V 10400 750 50  0000 C CNN
F 1 "220" V 10600 750 50  0000 C CNN
F 2 "Resistor_SMD:R_0805_2012Metric_Pad1.15x1.40mm_HandSolder" V 10430 750 50  0001 C CNN
F 3 "~" H 10500 750 50  0001 C CNN
	1    10500 750 
	0    -1   -1   0   
$EndComp
$Comp
L Device:R R22
U 1 1 5FF65D35
P 10500 6050
F 0 "R22" V 10400 6050 50  0000 C CNN
F 1 "220" V 10600 6050 50  0000 C CNN
F 2 "Resistor_SMD:R_0805_2012Metric_Pad1.15x1.40mm_HandSolder" V 10430 6050 50  0001 C CNN
F 3 "~" H 10500 6050 50  0001 C CNN
	1    10500 6050
	0    -1   -1   0   
$EndComp
$Comp
L Device:R R21
U 1 1 5FF65D2F
P 10500 5700
F 0 "R21" V 10400 5700 50  0000 C CNN
F 1 "220" V 10600 5700 50  0000 C CNN
F 2 "Resistor_SMD:R_0805_2012Metric_Pad1.15x1.40mm_HandSolder" V 10430 5700 50  0001 C CNN
F 3 "~" H 10500 5700 50  0001 C CNN
	1    10500 5700
	0    -1   -1   0   
$EndComp
$Comp
L Device:R R20
U 1 1 5FF65D29
P 10500 5350
F 0 "R20" V 10400 5350 50  0000 C CNN
F 1 "220" V 10600 5350 50  0000 C CNN
F 2 "Resistor_SMD:R_0805_2012Metric_Pad1.15x1.40mm_HandSolder" V 10430 5350 50  0001 C CNN
F 3 "~" H 10500 5350 50  0001 C CNN
	1    10500 5350
	0    -1   -1   0   
$EndComp
$Comp
L Device:R R19
U 1 1 5FF65D23
P 10500 5000
F 0 "R19" V 10400 5000 50  0000 C CNN
F 1 "220" V 10600 5000 50  0000 C CNN
F 2 "Resistor_SMD:R_0805_2012Metric_Pad1.15x1.40mm_HandSolder" V 10430 5000 50  0001 C CNN
F 3 "~" H 10500 5000 50  0001 C CNN
	1    10500 5000
	0    -1   -1   0   
$EndComp
$Comp
L Device:R R18
U 1 1 5FF5F5A7
P 10500 4650
F 0 "R18" V 10400 4650 50  0000 C CNN
F 1 "220" V 10600 4650 50  0000 C CNN
F 2 "Resistor_SMD:R_0805_2012Metric_Pad1.15x1.40mm_HandSolder" V 10430 4650 50  0001 C CNN
F 3 "~" H 10500 4650 50  0001 C CNN
	1    10500 4650
	0    -1   -1   0   
$EndComp
$Comp
L Device:R R17
U 1 1 5FF5F27F
P 10500 4300
F 0 "R17" V 10400 4300 50  0000 C CNN
F 1 "220" V 10600 4300 50  0000 C CNN
F 2 "Resistor_SMD:R_0805_2012Metric_Pad1.15x1.40mm_HandSolder" V 10430 4300 50  0001 C CNN
F 3 "~" H 10500 4300 50  0001 C CNN
	1    10500 4300
	0    -1   -1   0   
$EndComp
$Comp
L Device:R R16
U 1 1 5FF5F0BF
P 10500 3950
F 0 "R16" V 10400 3950 50  0000 C CNN
F 1 "220" V 10600 3950 50  0000 C CNN
F 2 "Resistor_SMD:R_0805_2012Metric_Pad1.15x1.40mm_HandSolder" V 10430 3950 50  0001 C CNN
F 3 "~" H 10500 3950 50  0001 C CNN
	1    10500 3950
	0    -1   -1   0   
$EndComp
$Comp
L Device:R R15
U 1 1 5FD414E2
P 10500 3600
F 0 "R15" V 10400 3600 50  0000 C CNN
F 1 "220" V 10600 3600 50  0000 C CNN
F 2 "Resistor_SMD:R_0805_2012Metric_Pad1.15x1.40mm_HandSolder" V 10430 3600 50  0001 C CNN
F 3 "~" H 10500 3600 50  0001 C CNN
	1    10500 3600
	0    -1   -1   0   
$EndComp
Text HLabel 4050 2900 2    50   Input ~ 0
SW_1
Wire Wire Line
	4050 2900 4000 2900
Text HLabel 4050 2800 2    50   Input ~ 0
SW_2
Wire Wire Line
	4050 2800 4000 2800
Text HLabel 4050 2700 2    50   Input ~ 0
SW_3
Wire Wire Line
	4000 2700 4050 2700
Text HLabel 4050 2600 2    50   Input ~ 0
SW_4
Text HLabel 4050 1400 2    50   Input ~ 0
MCP_RST
Wire Wire Line
	4000 2600 4050 2600
$Comp
L Connector_Generic:Conn_01x03 J6
U 1 1 5FD14995
P 2350 3800
F 0 "J6" H 2430 3842 50  0000 L CNN
F 1 "UART" H 2430 3751 50  0000 L CNN
F 2 "Connector_PinHeader_2.54mm:PinHeader_1x03_P2.54mm_Vertical" H 2350 3800 50  0001 C CNN
F 3 "~" H 2350 3800 50  0001 C CNN
	1    2350 3800
	1    0    0    -1  
$EndComp
Text HLabel 2100 3800 0    50   Input ~ 0
Rx
Text HLabel 2100 3700 0    50   Input ~ 0
Tx
$Comp
L power:GND #PWR0103
U 1 1 5FD1C790
P 2100 3950
F 0 "#PWR0103" H 2100 3700 50  0001 C CNN
F 1 "GND" H 2105 3777 50  0000 C CNN
F 2 "" H 2100 3950 50  0001 C CNN
F 3 "" H 2100 3950 50  0001 C CNN
	1    2100 3950
	1    0    0    -1  
$EndComp
Wire Wire Line
	2150 3700 2100 3700
Wire Wire Line
	2150 3800 2100 3800
Wire Wire Line
	2150 3900 2100 3900
Wire Wire Line
	2100 3900 2100 3950
Text HLabel 4050 2400 2    50   Input ~ 0
Rx
Text HLabel 4050 2500 2    50   Input ~ 0
Tx
Wire Wire Line
	4050 2400 4000 2400
Wire Wire Line
	4050 2500 4000 2500
$Comp
L Device:R_POT RV1
U 1 1 5FD9A30A
P 4200 3750
F 0 "RV1" H 4130 3704 50  0000 R CNN
F 1 "10k" H 4130 3795 50  0000 R CNN
F 2 "Potentiometer_THT:Potentiometer_Vishay_T73YP_Vertical" H 4200 3750 50  0001 C CNN
F 3 "~" H 4200 3750 50  0001 C CNN
	1    4200 3750
	1    0    0    1   
$EndComp
$Comp
L power:GND #PWR0104
U 1 1 5FDA7B4F
P 4200 3950
F 0 "#PWR0104" H 4200 3700 50  0001 C CNN
F 1 "GND" H 4205 3777 50  0000 C CNN
F 2 "" H 4200 3950 50  0001 C CNN
F 3 "" H 4200 3950 50  0001 C CNN
	1    4200 3950
	1    0    0    -1  
$EndComp
$Comp
L power:+3V3 #PWR0105
U 1 1 5FDA95F9
P 4200 3550
F 0 "#PWR0105" H 4200 3400 50  0001 C CNN
F 1 "+3V3" H 4215 3723 50  0000 C CNN
F 2 "" H 4200 3550 50  0001 C CNN
F 3 "" H 4200 3550 50  0001 C CNN
	1    4200 3550
	1    0    0    -1  
$EndComp
Wire Wire Line
	4200 3550 4200 3600
Wire Wire Line
	4200 3900 4200 3950
Text HLabel 4400 3750 2    50   Input ~ 0
TRIM
Wire Wire Line
	4400 3750 4350 3750
Text HLabel 4050 1300 2    50   Input ~ 0
TRIM
Wire Wire Line
	4050 1300 4000 1300
Wire Wire Line
	4050 1400 4000 1400
Wire Wire Line
	1700 6850 1650 6850
Wire Wire Line
	1700 6750 1650 6750
$Comp
L Connector_Generic:Conn_01x02 J3
U 1 1 5F78BACD
P 1450 6750
F 0 "J3" H 1500 6850 50  0000 C CNN
F 1 "POWER_IN" H 1450 6550 50  0000 C CNN
F 2 "Connector_PinHeader_2.54mm:PinHeader_1x02_P2.54mm_Horizontal" H 1450 6750 50  0001 C CNN
F 3 "~" H 1450 6750 50  0001 C CNN
	1    1450 6750
	-1   0    0    -1  
$EndComp
$Comp
L Device:LED LED1
U 1 1 5E788C77
P 10850 6050
F 0 "LED1" H 10850 5950 50  0000 C CNN
F 1 "LED" H 10843 6176 50  0000 C CNN
F 2 "Diode_SMD:D_1206_3216Metric_Pad1.42x1.75mm_HandSolder" H 10850 6050 50  0001 C CNN
F 3 "~" H 10850 6050 50  0001 C CNN
	1    10850 6050
	-1   0    0    1   
$EndComp
$Comp
L Device:LED LED2
U 1 1 5E78E0CA
P 10850 5700
F 0 "LED2" H 10850 5600 50  0000 C CNN
F 1 "LED" H 10843 5826 50  0000 C CNN
F 2 "Diode_SMD:D_1206_3216Metric_Pad1.42x1.75mm_HandSolder" H 10850 5700 50  0001 C CNN
F 3 "~" H 10850 5700 50  0001 C CNN
	1    10850 5700
	-1   0    0    1   
$EndComp
$Comp
L Device:LED LED3
U 1 1 5E792CC5
P 10850 5350
F 0 "LED3" H 10850 5250 50  0000 C CNN
F 1 "LED" H 10843 5476 50  0000 C CNN
F 2 "Diode_SMD:D_1206_3216Metric_Pad1.42x1.75mm_HandSolder" H 10850 5350 50  0001 C CNN
F 3 "~" H 10850 5350 50  0001 C CNN
	1    10850 5350
	-1   0    0    1   
$EndComp
$Comp
L Device:LED LED4
U 1 1 5E792CD2
P 10850 5000
F 0 "LED4" H 10850 4900 50  0000 C CNN
F 1 "LED" H 10843 5126 50  0000 C CNN
F 2 "Diode_SMD:D_1206_3216Metric_Pad1.42x1.75mm_HandSolder" H 10850 5000 50  0001 C CNN
F 3 "~" H 10850 5000 50  0001 C CNN
	1    10850 5000
	-1   0    0    1   
$EndComp
$Comp
L Device:LED LED5
U 1 1 5E796FF2
P 10850 4650
F 0 "LED5" H 10850 4550 50  0000 C CNN
F 1 "LED" H 10843 4776 50  0000 C CNN
F 2 "Diode_SMD:D_1206_3216Metric_Pad1.42x1.75mm_HandSolder" H 10850 4650 50  0001 C CNN
F 3 "~" H 10850 4650 50  0001 C CNN
	1    10850 4650
	-1   0    0    1   
$EndComp
$Comp
L Device:LED LED6
U 1 1 5E796FFF
P 10850 4300
F 0 "LED6" H 10850 4200 50  0000 C CNN
F 1 "LED" H 10843 4426 50  0000 C CNN
F 2 "Diode_SMD:D_1206_3216Metric_Pad1.42x1.75mm_HandSolder" H 10850 4300 50  0001 C CNN
F 3 "~" H 10850 4300 50  0001 C CNN
	1    10850 4300
	-1   0    0    1   
$EndComp
$Comp
L Device:LED LED7
U 1 1 5E79700C
P 10850 3950
F 0 "LED7" H 10850 3850 50  0000 C CNN
F 1 "LED" H 10843 4076 50  0000 C CNN
F 2 "Diode_SMD:D_1206_3216Metric_Pad1.42x1.75mm_HandSolder" H 10850 3950 50  0001 C CNN
F 3 "~" H 10850 3950 50  0001 C CNN
	1    10850 3950
	-1   0    0    1   
$EndComp
$Comp
L Device:LED LED8
U 1 1 5E797019
P 10850 3600
F 0 "LED8" H 10850 3500 50  0000 C CNN
F 1 "LED" H 10843 3726 50  0000 C CNN
F 2 "Diode_SMD:D_1206_3216Metric_Pad1.42x1.75mm_HandSolder" H 10850 3600 50  0001 C CNN
F 3 "~" H 10850 3600 50  0001 C CNN
	1    10850 3600
	-1   0    0    1   
$EndComp
$Comp
L Device:LED LED9
U 1 1 5E7D97A5
P 10850 3200
F 0 "LED9" H 10850 3100 50  0000 C CNN
F 1 "LED" H 10843 3326 50  0000 C CNN
F 2 "Diode_SMD:D_1206_3216Metric_Pad1.42x1.75mm_HandSolder" H 10850 3200 50  0001 C CNN
F 3 "~" H 10850 3200 50  0001 C CNN
	1    10850 3200
	-1   0    0    1   
$EndComp
$Comp
L Device:LED LED10
U 1 1 5E7D97B2
P 10850 2850
F 0 "LED10" H 10850 2750 50  0000 C CNN
F 1 "LED" H 10843 2976 50  0000 C CNN
F 2 "Diode_SMD:D_1206_3216Metric_Pad1.42x1.75mm_HandSolder" H 10850 2850 50  0001 C CNN
F 3 "~" H 10850 2850 50  0001 C CNN
	1    10850 2850
	-1   0    0    1   
$EndComp
$Comp
L Device:LED LED11
U 1 1 5E7D97BF
P 10850 2500
F 0 "LED11" H 10850 2400 50  0000 C CNN
F 1 "LED" H 10843 2626 50  0000 C CNN
F 2 "Diode_SMD:D_1206_3216Metric_Pad1.42x1.75mm_HandSolder" H 10850 2500 50  0001 C CNN
F 3 "~" H 10850 2500 50  0001 C CNN
	1    10850 2500
	-1   0    0    1   
$EndComp
$Comp
L Device:LED LED12
U 1 1 5E7D97CC
P 10850 2150
F 0 "LED12" H 10850 2050 50  0000 C CNN
F 1 "LED" H 10843 2276 50  0000 C CNN
F 2 "Diode_SMD:D_1206_3216Metric_Pad1.42x1.75mm_HandSolder" H 10850 2150 50  0001 C CNN
F 3 "~" H 10850 2150 50  0001 C CNN
	1    10850 2150
	-1   0    0    1   
$EndComp
$Comp
L Device:LED LED13
U 1 1 5E7D97D9
P 10850 1800
F 0 "LED13" H 10850 1700 50  0000 C CNN
F 1 "LED" H 10843 1926 50  0000 C CNN
F 2 "Diode_SMD:D_1206_3216Metric_Pad1.42x1.75mm_HandSolder" H 10850 1800 50  0001 C CNN
F 3 "~" H 10850 1800 50  0001 C CNN
	1    10850 1800
	-1   0    0    1   
$EndComp
$Comp
L Device:LED LED14
U 1 1 5E7D97E6
P 10850 1450
F 0 "LED14" H 10850 1350 50  0000 C CNN
F 1 "LED" H 10843 1576 50  0000 C CNN
F 2 "Diode_SMD:D_1206_3216Metric_Pad1.42x1.75mm_HandSolder" H 10850 1450 50  0001 C CNN
F 3 "~" H 10850 1450 50  0001 C CNN
	1    10850 1450
	-1   0    0    1   
$EndComp
$Comp
L Device:LED LED15
U 1 1 5E7D97F3
P 10850 1100
F 0 "LED15" H 10850 1000 50  0000 C CNN
F 1 "LED" H 10843 1226 50  0000 C CNN
F 2 "Diode_SMD:D_1206_3216Metric_Pad1.42x1.75mm_HandSolder" H 10850 1100 50  0001 C CNN
F 3 "~" H 10850 1100 50  0001 C CNN
	1    10850 1100
	-1   0    0    1   
$EndComp
$Comp
L Device:LED LED16
U 1 1 5E7D9800
P 10850 750
F 0 "LED16" H 10850 650 50  0000 C CNN
F 1 "LED" H 10843 876 50  0000 C CNN
F 2 "Diode_SMD:D_1206_3216Metric_Pad1.42x1.75mm_HandSolder" H 10850 750 50  0001 C CNN
F 3 "~" H 10850 750 50  0001 C CNN
	1    10850 750 
	-1   0    0    1   
$EndComp
$EndSCHEMATC
